{
  "name": "proje1",
  "version": "1.0.0",
  "description": "test proje1",
  "main": "index.js",
  "scripts": {
    "test": "grunt"
  },
  "repository": {
    "type": "git",
    "url": "git+https://github.com/ilcine/proje1.git"
  },
  "author": "emr ilcin",
  "license": "ISC",
  "bugs": {
    "url": "https://github.com/ilcine/proje1/issues"
  },
  "homepage": "https://github.com/ilcine/proje1#readme",
  "devDependencies": {
    "grunt": "^1.0.1",
    "grunt-contrib-jshint": "^1.1.0",
    "grunt-contrib-watch": "^1.0.0"
  }
}
